      <svg
        width="640"
        height="480"
        xmlns="http://www.w3.org/2000/svg"
        xmlns:svg="http://www.w3.org/2000/svg"
      >
        <!-- Created with SVG-edit - http://svg-edit.googlecode.com/ -->
        <g>
          <title>Layer 1</title>
          <path
            fill="#2d2d2d"
            stroke-width="5"
            stroke-dasharray="null"
            stroke-linejoin="null"
            stroke-linecap="null"
            d="m152.5,225.5c0,-84.51413 68.45645,-153 152.97058,-153l76.02655,0l76.02654,0l0.91749,153c0,84.51413 -68.45645,152.97058 -152.97058,152.97058c-42.25707,0 -80.49971,-17.11411 -108.17809,-44.79249c-27.67838,-27.67838 -44.79249,-65.92102 -44.79249,-108.17809z"
            id="svg_4"
            stroke="#2d2d2d"
          />
          <text
            fill="#ffffff"
            stroke-width="0"
            stroke-dasharray="null"
            stroke-linejoin="null"
            stroke-linecap="null"
            x="259.68099"
            y="143.92639"
            id="svg_6"
            font-size="24"
            font-family="Monospace"
            text-anchor="middle"
            xml:space="preserve"
            transform="matrix(13.9,0,0,17.76991350676428,-3300.851875,-2177.4920368783455) "
            stroke="#2d2d2d"
            font-weight="bold"
            font-style="normal"
          >
            N
          </text>
        </g>
      </svg>